…
    ## Downloading udpipe model from https://raw.githubusercontent.com/jwijffels/udpipe.models.ud.2.4/master/inst/udpipe-ud-2.4-190531/spanish-gsd-ud-2.4-190531.udpipe to /Users/anaescoto/Dropbox/2020/CursoR-posgrado-pol/spanish-gsd-ud-2.4-190531.udpipe

    ## Visit https://github.com/jwijffels/udpipe.models.ud.2.4 for model license details

## Formato epub

Vamos a importar un libro desde su formato epub. Este formato es mejor
que el de pdf porque no tenemos tantos cortes por páginas.

``` r
epub_head(path1) # muestra lo primero
```

    ## # A tibble: 25 x 2
    ##    section           text                                                       
    ##    <chr>             <chr>                                                      
    ##  1 Section0018.xhtml "Cuando Keiko llegó a la casa de té de Ofusa encont"       
    ##  2 cubierta.xhtml    ""                                                         
    ##  3 sinopsis.xhtml    " \n\n  Impulsado por la nostalgia, Oki Toshio, un es"     
    ##  4 titulo.xhtml      "Yasunari Kawabata\n\n  Lo bello y lo triste\n\n  美しさと哀"…
    ##  5 info.xhtml        "Título original:美しさと哀しみと (Utsukushisa to kanashimi"…
    ##  6 dedicatoria.xhtml "Lo bello y lo triste"                                     
    ##  7 Section0002.xhtml "Eran seis las butacas giratorias que se alineaban "       
    ##  8 Section0004.xhtml "Oki se había detenido en una colina, con la mirada"       
    ##  9 Section0006.xhtml "Otoko proyectaba llevar a Keiko al templo del mont"       
    ## 10 Section0008.xhtml "Cuando se cansaba de escribir o cuando una novela "       
    ## # … with 15 more rows
…
``` r
#x<-epub(file.choose())
```

Como observamos lo que queremos son las secciones que realmente tiene
nuestro texto (¡aunque quizás también analizar contraportadas sea otro
tema de análisis\!)

``` r
x$data # esto muestra que aquí adentro está lo que queremos
```

    ## [[1]]
    ## # A tibble: 25 x 4
    ##    section        text                                               nword nchar
    ##    <chr>          <chr>                                              <int> <int>
    ##  1 Section0018.x… "Cuando Keiko llegó a la casa de té de Ofusa enco…  7436 43690
    ##  2 cubierta.xhtml ""                                                     0     0
    ##  3 sinopsis.xhtml " \n\n  Impulsado por la nostalgia, Oki Toshio, u…    92   540
    ##  4 titulo.xhtml   "Yasunari Kawabata\n\n  Lo bello y lo triste\n\n …    11    86
    ##  5 info.xhtml     "Título original:美しさと哀しみと (Utsukushisa to kanashi…    30   285
    ##  6 dedicatoria.x… "Lo bello y lo triste"                                 5    20
    ##  7 Section0002.x… "Eran seis las butacas giratorias que se alineaba…  5990 34930
    ##  8 Section0004.x… "Oki se había detenido en una colina, con la mira…  7454 43536
    ##  9 Section0006.x… "Otoko proyectaba llevar a Keiko al templo del mo…  4601 27247
    ## 10 Section0008.x… "Cuando se cansaba de escribir o cuando una novel…  3564 20724
    ## # … with 15 more rows
…
